{
  "cols": [
        {"id":"","label":"Topping","pattern":"","type":"string"},
        {"id":"","label":"Slices","pattern":"","type":"number"}
      ],
  "rows": [
        {"c":[{"v":"Mushrooms","f":null},{"v":3,"f":null}]},
        {"c":[{"v":"Onions","f":null},{"v":1,"f":null}]},
        {"c":[{"v":"Olives","f":null},{"v":1,"f":null}]},
        {"c":[{"v":"Zucchini","f":null},{"v":1,"f":null}]},
        {"c":[{"v":"Pepperoni","f":null},{"v":2,"f":null}]}
      ]
}

{
    "cols":[
        {"type":"string"},
        {"type":"number"}
    ],
    "rows":[
        {"c":[{"v":"20-01-13"},{"v":35}]},
        {"c":[{"v":"21-01-13"},{"v":30}]}
    ]
}

{
    "cols":[
        {"type":"string","label":"Week "},
        {"type":"number","label":"Time Card Complaince"},
        {"type":"number","label":"Effective Utiliztion"}
    ],
    "rows":[
        {"c":[[{"v":"Week 4"},{"v":"95"},{"v":"89"}]]},
        {"c":[[{"v":"Week 2"},{"v":"95"},{"v":"89"}]]},
        {"c":[[{"v":"Week 1"},{"v":"95"},{"v":"89"}]]}
    ]
}

{
    "cols":[
        {"type":"string","label":"Week "},
        {"type":"number","label":"Time Card Complaince"},
        {"type":"number","label":"Effective Utiliztion"}
    ],
    "rows":[
        {"c":[{"v":"Week 4"},{"v":"95"},{"v":"89"}]},
        {"c":[{"v":"Week 2"},{"v":"95"},{"v":"89"}]},
        {"c":[{"v":"Week 1"},{"v":"95"},{"v":"89"}]}
    ]
}